[1128/171009.414:ERROR:process_info.cc(329)] VirtualQueryEx: Access is denied. (0x5)
[1128/171009.414:ERROR:process_info.cc(556)] ReadMemoryInfo failed
[1128/171009.414:ERROR:scoped_process_suspend.cc(40)] NtResumeProcess: An attempt was made to access an exiting process. (0xc000010a)
